450,451,165,165,-1,-1,-1,-1,-1,-1,-1,-1,-1,-1,-1,-1,-1,-1,-1,-1,-1,-1,-1,-1,-1,-1,-1,-1,-1,-1,-1,-1,-1,-1,-1,-1,-1,-1,-1,-1,-1,-1,-1,-1,-1,-1,-1,-1,-1,-1,-1,-1,-1,-1,-1,-1,-1,-1,-1,-1,-1,-1,-1,-1,-1,-1,-1,-1,-1,-1,-1,-1,14,14,22,14,14,14,14,14,14,14,14,14,22,22,15,-1,-1,-1,-1,-1,-1,-1,-1,-1,-1,-1,-1,-1,-1,-1,-1,8,9,9,10,-1,-1,-1,-1,-1,-1,-1,-1,-1,8,9,9,10,-1,-1,-1,-1,-1,-1,-1,-1,-1,-1,-1,-1,-1,-1,-1,-1,-1,-1,-1,-1,-1,23,-1,-1,-1,-1,-1,-1,-1,-1,-1,-1,-1,-1,-1,-1,-1,-1,-1,-1,-1,-1,-1,-1,-1,-1,543,-1,-1,-1,-1,-1,-1,-1,-1,-1,-1,-1,-1,-1,-1,-1,543,-1,-1,-1,-1,-1,-1,-1,-1,-1,-1,-1,-1,-1,-1,-1,-1,-1
498,499,165,165,-1,-1,-1,-1,-1,-1,-1,-1,-1,-1,-1,-1,-1,-1,-1,-1,-1,-1,-1,-1,-1,-1,-1,-1,-1,-1,-1,-1,-1,-1,-1,-1,-1,-1,-1,-1,-1,-1,-1,-1,-1,-1,-1,-1,-1,-1,-1,-1,-1,-1,-1,-1,-1,-1,-1,-1,-1,-1,-1,-1,-1,-1,-1,-1,-1,-1,-1,-1,14,22,22,14,-1,-1,-1,-1,-1,-1,-1,-1,22,-1,15,-1,-1,-1,-1,-1,-1,-1,-1,-1,-1,-1,-1,-1,-1,-1,-1,16,17,17,18,-1,-1,-1,-1,-1,-1,-1,-1,-1,16,17,17,18,-1,-1,-1,-1,-1,-1,-1,-1,-1,-1,-1,-1,-1,-1,-1,-1,-1,-1,-1,-1,-1,14,14,14,-1,-1,-1,-1,-1,-1,-1,-1,-1,-1,-1,-1,-1,-1,-1,-1,-1,-1,-1,-1,-1,-1,543,-1,-1,-1,-1,-1,-1,-1,-1,-1,-1,-1,-1,-1,-1,-1,543,-1,-1,-1,-1,-1,-1,-1,-1,-1,-1,-1,-1,-1,-1,-1,-1,-1
546,547,165,165,-1,-1,-1,-1,-1,-1,-1,-1,-1,-1,-1,-1,-1,-1,-1,-1,-1,-1,-1,-1,-1,-1,-1,-1,-1,-1,-1,-1,-1,-1,-1,-1,-1,-1,-1,-1,-1,-1,-1,-1,-1,-1,-1,-1,-1,-1,-1,-1,-1,-1,-1,-1,-1,-1,-1,-1,-1,-1,-1,-1,-1,-1,-1,-1,-1,-1,-1,-1,-1,-1,-1,-1,-1,-1,-1,-1,-1,-1,-1,-1,-1,15,15,-1,-1,-1,-1,-1,-1,15,-1,-1,-1,-1,-1,-1,-1,-1,-1,16,17,17,18,-1,-1,-1,-1,-1,-1,-1,-1,-1,16,17,17,18,-1,-1,-1,-1,-1,-1,-1,-1,-1,-1,-1,-1,-1,-1,-1,14,-1,-1,-1,-1,-1,14,15,14,-1,-1,-1,-1,-1,-1,-1,-1,-1,-1,-1,-1,-1,-1,-1,-1,-1,-1,-1,-1,-1,-1,543,-1,-1,-1,-1,-1,-1,-1,-1,-1,-1,-1,-1,-1,-1,-1,543,-1,-1,-1,-1,-1,-1,-1,-1,-1,-1,-1,-1,-1,-1,-1,-1,-1
594,595,165,165,-1,-1,-1,-1,-1,-1,-1,-1,-1,-1,-1,-1,-1,-1,-1,-1,-1,-1,-1,-1,-1,-1,-1,-1,-1,-1,-1,-1,-1,-1,-1,-1,-1,-1,-1,-1,-1,-1,-1,-1,-1,1,-1,-1,-1,-1,-1,-1,-1,-1,-1,-1,-1,-1,-1,-1,-1,-1,-1,-1,-1,-1,-1,-1,-1,-1,-1,-1,-1,-1,-1,-1,-1,-1,-1,-1,-1,-1,-1,-1,-1,-1,-1,-1,-1,-1,-1,-1,-1,15,-1,-1,-1,-1,-1,-1,-1,-1,-1,16,17,17,18,-1,-1,-1,-1,-1,-1,-1,-1,-1,-1,17,17,18,-1,-1,-1,-1,-1,-1,-1,-1,-1,-1,-1,14,-1,-1,-1,14,14,-1,-1,-1,-1,15,15,14,-1,-1,-1,-1,-1,-1,-1,-1,-1,-1,-1,-1,-1,-1,-1,-1,-1,-1,-1,-1,-1,-1,543,-1,-1,-1,-1,-1,-1,-1,-1,-1,-1,-1,-1,-1,-1,-1,543,-1,-1,-1,-1,-1,-1,-1,-1,-1,-1,-1,-1,-1,-1,-1,-1,-1
642,165,165,165,-1,-1,-1,-1,-1,-1,-1,-1,-1,-1,-1,-1,-1,-1,-1,-1,-1,-1,-1,-1,-1,-1,-1,-1,-1,-1,-1,-1,-1,-1,-1,-1,-1,-1,-1,-1,-1,-1,-1,-1,2,2,1,2,-1,-1,-1,-1,-1,-1,-1,-1,-1,-1,-1,-1,-1,-1,-1,-1,-1,-1,-1,-1,-1,-1,-1,-1,14,-1,14,-1,-1,-1,-1,-1,-1,-1,-1,-1,-1,-1,-1,-1,-1,-1,15,-1,-1,15,-1,-1,15,-1,-1,-1,-1,-1,-1,-1,-1,-1,-1,-1,-1,-1,-1,-1,-1,14,-1,-1,-1,-1,-1,-1,-1,-1,-1,-1,-1,-1,-1,-1,-1,-1,22,14,-1,14,-1,14,14,8,-1,-1,-1,15,15,14,-1,-1,-1,-1,-1,-1,-1,-1,-1,-1,-1,-1,-1,-1,-1,-1,-1,-1,-1,-1,-1,-1,-1,-1,-1,-1,-1,-1,-1,-1,-1,-1,-1,-1,-1,-1,-1,-1,543,-1,-1,-1,-1,-1,-1,-1,-1,-1,-1,-1,-1,-1,-1,-1,-1,-1
738,165,165,165,-1,-1,-1,-1,-1,-1,-1,-1,-1,-1,-1,-1,-1,-1,-1,-1,-1,-1,-1,-1,-1,-1,-1,-1,-1,-1,-1,-1,-1,-1,-1,-1,-1,-1,-1,-1,-1,-1,-1,2,2,2,14,2,1,-1,-1,-1,-1,-1,-1,-1,-1,-1,-1,-1,-1,-1,-1,-1,-1,-1,-1,-1,-1,-1,-1,14,14,-1,22,14,-1,-1,-1,-1,-1,23,-1,-1,14,14,-1,-1,-1,-1,15,-1,-1,15,-1,-1,15,-1,-1,-1,-1,-1,-1,-1,-1,-1,-1,-1,-1,-1,-1,-1,-1,14,-1,-1,-1,-1,-1,-1,-1,-1,-1,-1,-1,-1,-1,-1,-1,-1,-1,14,-1,14,-1,14,14,-1,-1,-1,-1,15,15,14,-1,-1,-1,-1,-1,-1,-1,-1,-1,-1,-1,-1,-1,-1,-1,-1,-1,-1,-1,-1,-1,-1,-1,-1,-1,-1,-1,-1,-1,-1,-1,-1,-1,-1,-1,-1,-1,-1,543,-1,-1,-1,-1,-1,-1,-1,-1,-1,-1,-1,-1,-1,-1,-1,-1,-1
1,1,1,1,1,1,1,1,1,1,1,1,1,1,1,1,1,1,1,1,1,1,1,1,1,1,-1,-1,1,1,1,1,1,-1,-1,22,1,1,1,1,1,1,1,2,2,2,2,2,2,1,1,1,1,1,1,1,1,1,1,1,1,1,1,1,1,1,1,1,1,1,1,1,1,14,14,14,22,22,-1,-1,22,22,22,22,14,14,14,1,1,1,1,1,1,1,1,1,1,1,1,1,5,5,5,14,14,14,14,14,14,14,14,14,14,14,14,14,22,14,14,14,5,5,5,5,5,5,6,6,6,6,6,6,6,6,1,22,-1,-1,-1,-1,5,14,5,5,5,-1,-1,2,5,5,5,5,5,5,5,5,5,5,5,5,5,5,5,5,5,5,447,447,447,447,447,447,447,447,447,447,447,447,447,447,447,447,447,5,5,5,5,5,5,5,5,5,5,5,5,5,5,5,5,5
36,4,34,4,4,4,36,34,36,36,34,4,34,36,4,34,36,36,4,36,34,34,36,4,34,34,-1,-1,4,36,36,34,22,-1,-1,22,36,34,34,4,4,4,36,36,36,36,4,4,34,36,34,34,4,34,36,34,36,34,36,4,36,36,4,36,34,36,34,36,34,34,34,34,36,36,36,14,22,22,-1,-1,-1,-1,-1,-1,-1,-1,-1,-1,-1,-1,-1,-1,34,34,34,4,36,36,34,4,4,4,36,34,36,36,22,34,36,4,36,36,34,4,34,22,22,4,4,36,4,34,4,36,34,4,34,36,36,36,36,36,36,4,4,22,22,-1,-1,15,15,-1,34,-1,-1,-1,-1,2,2,4,34,36,36,4,4,34,34,34,4,4,36,4,4,36,36,4,4,34,4,36,34,34,36,34,4,34,4,36,34,36,4,36,4,36,36,36,4,4,36,4,34,4,34,36,34,36,4,4,4,34
4,4,4,4,36,36,4,36,36,4,34,4,36,34,4,36,34,34,4,4,36,36,36,36,34,4,34,34,4,34,4,36,22,22,22,34,36,36,34,34,34,36,36,36,36,34,4,4,34,36,34,34,36,4,36,4,36,34,4,34,34,4,4,34,4,34,34,36,4,36,4,34,34,36,4,36,22,22,22,-1,-1,-1,-1,-1,-1,-1,-1,-1,-1,-1,-1,-1,4,36,34,36,36,4,4,34,34,4,36,34,4,4,4,4,36,4,36,34,36,36,4,36,34,34,36,36,36,34,34,36,4,36,34,34,34,34,4,36,4,4,4,22,22,-1,-1,-1,-1,-1,-1,-1,-1,-1,2,2,2,36,36,36,34,4,34,36,34,34,4,4,34,34,4,36,36,4,34,4,34,36,34,36,36,34,4,34,4,34,36,34,34,34,36,36,34,36,36,36,4,36,4,4,34,36,34,4,4,36,36,36
36,34,36,36,34,4,4,4,36,34,36,4,36,4,36,36,4,4,36,36,34,36,36,4,36,36,34,34,36,34,4,34,36,34,34,34,34,36,34,4,34,34,34,4,34,36,34,36,4,36,4,34,36,4,36,4,34,34,34,34,36,4,36,34,4,36,36,4,34,34,4,36,34,4,36,34,34,22,22,-1,-1,-1,-1,22,22,-1,22,22,34,4,-1,-1,4,34,4,36,34,34,34,34,4,36,4,4,34,36,36,34,34,34,34,36,36,4,4,34,34,36,34,4,34,36,36,34,4,4,34,34,36,36,36,36,4,36,36,22,22,22,-1,-1,-1,-1,-1,-1,2,2,2,2,34,34,4,34,4,34,34,4,34,34,34,34,4,4,36,34,34,36,34,4,34,36,34,34,36,36,4,34,36,36,4,4,34,4,4,34,36,34,4,34,34,36,4,34,34,34,4,36,4,34,4,34
4,34,4,4,34,4,34,36,34,34,36,34,4,34,4,4,34,34,34,4,4,34,4,34,36,36,34,36,34,4,34,4,34,36,34,4,34,34,34,34,34,4,4,36,36,36,36,4,36,36,36,36,34,36,36,36,36,34,36,4,34,4,4,34,34,36,36,4,4,34,36,34,36,36,36,34,36,22,22,22,-1,-1,-1,22,22,-1,22,4,4,36,34,36,36,36,34,4,36,34,36,36,36,36,34,36,34,34,34,36,36,34,4,36,36,36,4,4,34,4,36,36,34,34,34,36,36,34,36,4,4,34,34,34,4,36,36,22,22,22,22,-1,-1,-1,-1,14,2,2,2,2,34,34,36,4,34,4,4,34,36,36,34,34,34,36,36,34,34,34,36,34,4,34,4,34,4,34,36,36,36,4,4,34,4,36,36,4,36,36,4,36,4,36,4,4,34,34,34,4,4,36,34,36
36,4,34,34,34,34,34,34,34,36,4,34,36,4,36,34,36,36,36,4,34,36,34,36,36,34,36,34,36,36,36,34,34,34,34,36,4,4,36,4,4,34,34,34,4,36,34,36,36,4,4,36,34,4,36,4,34,36,36,34,36,4,34,34,4,34,34,34,4,34,34,34,4,36,4,34,34,34,22,22,22,-1,-1,-1,-1,-1,-1,36,36,4,34,4,34,4,34,36,34,4,36,36,4,36,34,36,36,36,4,4,4,4,34,34,4,4,34,36,34,4,34,36,4,4,4,4,36,36,34,36,34,34,4,34,34,34,36,36,22,2,22,14,14,-1,36,2,2,2,2,36,4,36,34,36,4,34,36,34,34,36,36,34,34,4,4,34,4,34,36,36,36,4,34,34,4,34,36,4,36,34,36,4,36,36,4,34,36,36,4,34,36,4,4,36,36,4,34,34,4,34,4,4
36,4,36,4,4,4,34,34,36,36,36,4,4,36,34,4,34,4,34,36,4,4,34,4,34,4,36,4,34,36,4,36,36,34,36,36,36,36,4,4,4,4,34,34,4,34,4,34,4,4,34,4,36,4,34,36,4,36,36,36,36,4,4,36,36,4,36,36,4,4,4,4,36,36,36,36,34,34,34,22,22,22,-1,-1,-1,-1,-1,36,4,34,4,4,34,36,34,36,36,4,34,36,4,34,4,4,4,36,4,34,34,36,36,4,4,4,36,36,34,4,34,36,34,34,36,4,36,4,4,34,34,34,36,34,36,36,36,36,22,2,2,2,2,2,2,2,2,2,4,34,36,36,36,36,36,34,4,4,4,36,4,36,36,4,4,4,4,36,36,36,36,4,34,34,34,34,4,36,36,4,34,36,36,34,4,36,4,4,34,34,36,34,4,34,34,4,34,4,34,34,34,36
36,4,34,4,36,4,36,34,34,34,36,4,36,4,34,4,36,36,36,36,36,4,4,34,36,4,36,4,4,4,36,36,36,36,36,36,4,34,34,36,4,34,4,36,36,34,4,34,34,34,4,34,34,34,36,34,4,4,4,34,34,4,36,36,36,36,4,4,36,4,36,4,4,4,4,4,34,4,4,36,22,22,22,22,22,22,34,4,4,34,34,34,36,36,36,4,36,4,34,36,4,4,36,34,4,36,4,34,4,4,36,4,4,4,36,4,4,4,4,34,4,4,36,4,4,4,36,4,4,34,34,4,36,34,34,36,36,34,36,34,36,34,36,36,34,4,36,34,36,36,34,36,34,36,34,34,4,34,34,36,36,36,34,34,36,36,34,34,4,4,34,34,4,4,4,4,34,4,36,36,36,4,36,4,36,4,36,34,36,36,36,36,4,4,4,36,34,34,36,36
4,36,36,4,4,34,34,34,36,4,36,4,36,34,34,4,36,4,34,4,36,36,4,36,36,4,36,34,34,34,34,34,34,36,34,34,4,4,4,36,34,4,34,34,4,4,36,36,4,36,4,34,34,36,34,36,36,34,36,4,4,34,4,34,4,34,4,4,36,4,4,34,36,4,34,34,4,34,36,4,34,36,36,34,34,36,4,34,36,4,36,36,34,34,36,4,4,36,4,36,4,4,36,36,36,36,4,4,36,36,4,36,36,36,36,36,34,4,4,4,4,4,4,36,4,4,36,36,4,36,34,4,36,4,34,34,34,4,4,36,36,36,34,36,36,4,4,4,36,4,4,34,4,4,34,34,36,34,36,34,4,34,4,34,34,36,36,4,4,36,34,36,34,34,34,4,4,36,34,4,4,34,34,4,4,34,34,34,34,34,4,36,4,34,34,4,4,34,4,4
